UART.sim/sim_1/behav/xsim/rx_quick_test.vcd
$date
   Tue Nov 18 23:37:11 2025
$end

$version
  2024.1
  $dumpfile ("rx_quick_test.vcd") 
$end

$timescale
  1ps
$end

$scope module uart_rx_quick_test $end
$var reg 1 ! clk $end
$var reg 1 " rst_n $end
$var reg 1 # rxd $end
$scope module rx_dut $end
$var wire 1 $ clk $end
$var wire 1 % rst_n $end
$var wire 1 & rxd $end
$var reg 8 ' data_o [7:0] $end
$var reg 1 ( data_valid_o $end
$var wire 1 ) rx_busy $end
$var wire 3 * baudrate_select [2:0] $end
$var reg 3 + rx_state [2:0] $end
$var reg 3 , bit_counter [2:0] $end
$var reg 8 - shift_reg [7:0] $end
$var reg 1 . transaction_en $end
$var wire 1 / baud_enable $end
$var reg 3 0 rxd_sync [2:0] $end
$var wire 1 1 rxd_clean $end
$var reg 1 2 rxd_prev $end
$var wire 1 3 start_bit_detected $end
$scope module baud_gen_rx $end
$var wire 1 $ clk $end
$var wire 1 4 transaction_en $end
$var wire 3 * baudrate_mux [2:0] $end
$var reg 1 5 baudrate_clk_en $end
$var wire 1 % rst_n $end
$var reg 15 6 counter_div [14:0] $end
$var reg 15 7 counter_div_load [14:0] $end
$var reg 4 8 \BLOCK_FOR_RX.sample_counter  [3:0] $end
$upscope $end
$upscope $end
$upscope $end
$enddefinitions $end

#0
$dumpvars
0!
0"
1#
0$
0%
1&
b0 '
0(
0)
b111 *
b0 +
b0 ,
b0 -
0.
0/
b111 0
11
12
03
04
05
b0 6
b10000111100 7
b0 8
$end

#5000
1!
1$

#10000
0!
0$

#15000
1!
1$

#20000
0!
0$

#25000
1!
1$

#30000
0!
0$

#35000
1!
1$

#40000
0!
0$

#45000
1!
1$

#50000
0!
0$

#55000
1!
1$

#60000
0!
0$

#65000
1!
1$

#70000
0!
0$

#75000
1!
1$

#80000
0!
0$

#85000
1!
1$

#90000
0!
0$

#95000
1!
1$

#100000
0!
1"
0$
1%

#105000
1!
1$
b10000111100 6

#110000
0!
0$

#115000
1!
1$

#120000
0!
0$

#125000
1!
1$

#130000
0!
0$

#135000
1!
1$

#140000
0!
0$

#145000
1!
1$

#150000
0!
0$

#155000
1!
1$

#160000
0!
0$

#165000
1!
1$

#170000
0!
0$

#175000
1!
1$

#180000
0!
0$

#185000
1!
1$

#190000
0!
0$

#195000
1!
1$

#200000
0!
0$

#205000
1!
1$

#210000
0!
0$

#215000
1!
1$

#220000
0!
0$

#225000
1!
1$

#230000
0!
0$

#235000
1!
1$

#240000
0!
0$

#245000
1!
1$

#250000
0!
0$

#255000
1!
1$

#260000
0!
0$

#265000
1!
1$

#270000
0!
0$

#275000
1!
1$

#280000
0!
0$

#285000
1!
1$

#290000
0!
0$

#295000
1!
1$

#300000
0!
0$

#305000
1!
1$

#310000
0!
0$

#315000
1!
1$

#320000
0!
0$

#325000
1!
1$

#330000
0!
0$

#335000
1!
1$

#340000
0!
0$

#345000
1!
1$

#350000
0!
0$

#355000
1!
1$

#360000
0!
0$

#365000
1!
1$

#370000
0!
0$

#375000
1!
1$

#380000
0!
0$

#385000
1!
1$

#390000
0!
0$

#395000
1!
1$

#400000
0!
0$

#405000
1!
1$

#410000
0!
0$

#415000
1!
1$

#420000
0!
0$

#425000
1!
1$

#430000
0!
0$

#435000
1!
1$

#440000
0!
0$

#445000
1!
1$

#450000
0!
0$

#455000
1!
1$

#460000
0!
0$

#465000
1!
1$

#470000
0!
0$

#475000
1!
1$

#480000
0!
0$

#485000
1!
1$

#490000
0!
0$

#495000
1!
1$

#500000
0!
0$

#505000
1!
1$

#510000
0!
0$

#515000
1!
1$

#520000
0!
0$

#525000
1!
1$

#530000
0!
0$

#535000
1!
1$

#540000
0!
0$

#545000
1!
1$

#550000
0!
0$

#555000
1!
1$

#560000
0!
0$

#565000
1!
1$

#570000
0!
0$

#575000
1!
1$

#580000
0!
0$

#585000
1!
1$

#590000
0!
0$

#595000
1!
1$

#600000
0!
0$

#605000
1!
1$

#610000
0!
0$

#615000
1!
1$

#620000
0!
0$

#625000
1!
1$

#630000
0!
0$

#635000
1!
1$

#640000
0!
0$

#645000
1!
1$

#650000
0!
0$

#655000
1!
1$

#660000
0!
0$

#665000
1!
1$

#670000
0!
0$

#675000
1!
1$

#680000
0!
0$

#685000
1!
1$

#690000
0!
0$

#695000
1!
1$

#700000
0!
0$

#705000
1!
1$

#710000
0!
0$

#715000
1!
1$

#720000
0!
0$

#725000
1!
1$

#730000
0!
0$

#735000
1!
1$

#740000
0!
0$

#745000
1!
1$

#750000
0!
0$

#755000
1!
1$

#760000
0!
0$

#765000
1!
1$

#770000
0!
0$

#775000
1!
1$

#780000
0!
0$

#785000
1!
1$

#790000
0!
0$

#795000
1!
1$

#800000
0!
0$

#805000
1!
1$

#810000
0!
0$

#815000
1!
1$

#820000
0!
0$

#825000
1!
1$

#830000
0!
0$

#835000
1!
1$

#840000
0!
0$

#845000
1!
1$

#850000
0!
0$

#855000
1!
1$

#860000
0!
0$

#865000
1!
1$

#870000
0!
0$

#875000
1!
1$

#880000
0!
0$

#885000
1!
1$

#890000
0!
0$

#895000
1!
1$

#900000
0!
0$

#905000
1!
1$

#910000
0!
0$

#915000
1!
1$

#920000
0!
0$

#925000
1!
1$

#930000
0!
0$

#935000
1!
1$

#940000
0!
0$

#945000
1!
1$

#950000
0!
0$

#955000
1!
1$

#960000
0!
0$

#965000
1!
1$

#970000
0!
0$

#975000
1!
1$

#980000
0!
0$

#985000
1!
1$

#990000
0!
0$

#995000
1!
1$

#1000000
0!
0$

#1005000
1!
1$

#1010000
0!
0$

#1015000
1!
1$

#1020000
0!
0$

#1025000
1!
1$

#1030000
0!
0$

#1035000
1!
1$

#1040000
0!
0$

#1045000
1!
1$

#1050000
0!
0$

#1055000
1!
1$

#1060000
0!
0$

#1065000
1!
1$

#1070000
0!
0$

#1075000
1!
1$

#1080000
0!
0$

#1085000
1!
1$

#1090000
0!
0$

#1095000
1!
1$

#1100000
0!
0$

#1105000
1!
1$

#1110000
0!
0$

#1115000
1!
1$

#1120000
0!
0$

#1125000
1!
1$

#1130000
0!
0$

#1135000
1!
1$

#1140000
0!
0$

#1145000
1!
1$

#1150000
0!
0$

#1155000
1!
1$

#1160000
0!
0$

#1165000
1!
1$

#1170000
0!
0$

#1175000
1!
1$

#1180000
0!
0$

#1185000
1!
1$

#1190000
0!
0$

#1195000
1!
1$

#1200000
0!
0$

#1205000
1!
1$

#1210000
0!
0$

#1215000
1!
1$

#1220000
0!
0$

#1225000
1!
1$

#1230000
0!
0$

#1235000
1!
1$

#1240000
0!
0$

#1245000
1!
1$

#1250000
0!
0$

#1255000
1!
1$

#1260000
0!
0$

#1265000
1!
1$

#1270000
0!
0$

#1275000
1!
1$

#1280000
0!
0$

#1285000
1!
1$

#1290000
0!
0$

#1295000
1!
1$

#1300000
0!
0$

#1305000
1!
1$

#1310000
0!
0$

#1315000
1!
1$

#1320000
0!
0$

#1325000
1!
1$

#1330000
0!
0$

#1335000
1!
1$

#1340000
0!
0$

#1345000
1!
1$

#1350000
0!
0$

#1355000
1!
1$

#1360000
0!
0$

#1365000
1!
1$

#1370000
0!
0$

#1375000
1!
1$

#1380000
0!
0$

#1385000
1!
1$

#1390000
0!
0$

#1395000
1!
1$

#1400000
0!
0$

#1405000
1!
1$

#1410000
0!
0$

#1415000
1!
1$

#1420000
0!
0$

#1425000
1!
1$

#1430000
0!
0$

#1435000
1!
1$

#1440000
0!
0$

#1445000
1!
1$

#1450000
0!
0$

#1455000
1!
1$

#1460000
0!
0$

#1465000
1!
1$

#1470000
0!
0$

#1475000
1!
1$

#1480000
0!
0$

#1485000
1!
1$

#1490000
0!
0$

#1495000
1!
1$

#1500000
0!
0$

#1505000
1!
1$

#1510000
0!
0$

#1515000
1!
1$

#1520000
0!
0$

#1525000
1!
1$

#1530000
0!
0$

#1535000
1!
1$

#1540000
0!
0$

#1545000
1!
1$

#1550000
0!
0$

#1555000
1!
1$

#1560000
0!
0$

#1565000
1!
1$

#1570000
0!
0$

#1575000
1!
1$

#1580000
0!
0$

#1585000
1!
1$

#1590000
0!
0$

#1595000
1!
1$

#1600000
0!
0$

#1605000
1!
1$

#1610000
0!
0$

#1615000
1!
1$

#1620000
0!
0$

#1625000
1!
1$

#1630000
0!
0$

#1635000
1!
1$

#1640000
0!
0$

#1645000
1!
1$

#1650000
0!
0$

#1655000
1!
1$

#1660000
0!
0$

#1665000
1!
1$

#1670000
0!
0$

#1675000
1!
1$

#1680000
0!
0$

#1685000
1!
1$

#1690000
0!
0$

#1695000
1!
1$

#1700000
0!
0$

#1705000
1!
1$

#1710000
0!
0$

#1715000
1!
1$

#1720000
0!
0$

#1725000
1!
1$

#1730000
0!
0$

#1735000
1!
1$

#1740000
0!
0$

#1745000
1!
1$

#1750000
0!
0$

#1755000
1!
1$

#1760000
0!
0$

#1765000
1!
1$

#1770000
0!
0$

#1775000
1!
1$

#1780000
0!
0$

#1785000
1!
1$

#1790000
0!
0$

#1795000
1!
1$

#1800000
0!
0$

#1805000
1!
1$

#1810000
0!
0$

#1815000
1!
1$

#1820000
0!
0$

#1825000
1!
1$

#1830000
0!
0$

#1835000
1!
1$

#1840000
0!
0$

#1845000
1!
1$

#1850000
0!
0$

#1855000
1!
1$

#1860000
0!
0$

#1865000
1!
1$

#1870000
0!
0$

#1875000
1!
1$

#1880000
0!
0$

#1885000
1!
1$

#1890000
0!
0$

#1895000
1!
1$

#1900000
0!
0$

#1905000
1!
1$

#1910000
0!
0$

#1915000
1!
1$

#1920000
0!
0$

#1925000
1!
1$

#1930000
0!
0$

#1935000
1!
1$

#1940000
0!
0$

#1945000
1!
1$

#1950000
0!
0$

#1955000
1!
1$

#1960000
0!
0$

#1965000
1!
1$

#1970000
0!
0$

#1975000
1!
1$

#1980000
0!
0$

#1985000
1!
1$

#1990000
0!
0$

#1995000
1!
1$

#2000000
0!
0$

#2005000
1!
1$

#2010000
0!
0$

#2015000
1!
1$

#2020000
0!
0$

#2025000
1!
1$

#2030000
0!
0$

#2035000
1!
1$

#2040000
0!
0$

#2045000
1!
1$

#2050000
0!
0$

#2055000
1!
1$

#2060000
0!
0$

#2065000
1!
1$

#2070000
0!
0$

#2075000
1!
1$

#2080000
0!
0$

#2085000
1!
1$

#2090000
0!
0$

#2095000
1!
1$

#2100000
0!
0#
0$
0&

#2105000
1!
1$
b110 0

#2110000
0!
0$

#2115000
1!
1$
b100 0
01
13

#2120000
0!
0$

#2125000
1!
1$
1)
b1 +
1.
b0 0
02
03
14

#2130000
0!
0$

#2135000
1!
1$
b10000111011 6

#2140000
0!
0$

#2145000
1!
1$
b10000111010 6

#2150000
0!
0$

#2155000
1!
1$
b10000111001 6

#2160000
0!
0$

#2165000
1!
1$
b10000111000 6

#2170000
0!
0$

#2175000
1!
1$
b10000110111 6

#2180000
0!
0$

#2185000
1!
1$
b10000110110 6

#2190000
0!
0$

#2195000
1!
1$
b10000110101 6

#2200000
0!
0$

#2205000
1!
1$
b10000110100 6

#2210000
0!
0$

#2215000
1!
1$
b10000110011 6

#2220000
0!
0$

#2225000
1!
1$
b10000110010 6

#2230000
0!
0$

#2235000
1!
1$
b10000110001 6

#2240000
0!
0$

#2245000
1!
1$
b10000110000 6

#2250000
0!
0$

#2255000
1!
1$
b10000101111 6

#2260000
0!
0$

#2265000
1!
1$
b10000101110 6

#2270000
0!
0$

#2275000
1!
1$
b10000101101 6

#2280000
0!
0$

#2285000
1!
1$
b10000101100 6

#2290000
0!
0$

#2295000
1!
1$
b10000101011 6

#2300000
0!
0$

#2305000
1!
1$
b10000101010 6

#2310000
0!
0$

#2315000
1!
1$
b10000101001 6

#2320000
0!
0$

#2325000
1!
1$
b10000101000 6

#2330000
0!
0$

#2335000
1!
1$
b10000100111 6

#2340000
0!
0$

#2345000
1!
1$
b10000100110 6

#2350000
0!
0$

#2355000
1!
1$
b10000100101 6

#2360000
0!
0$

#2365000
1!
1$
b10000100100 6

#2370000
0!
0$

#2375000
1!
1$
b10000100011 6

#2380000
0!
0$

#2385000
1!
1$
b10000100010 6

#2390000
0!
0$

#2395000
1!
1$
b10000100001 6

#2400000
0!
0$

#2405000
1!
1$
b10000100000 6

#2410000
0!
0$

#2415000
1!
1$
b10000011111 6

#2420000
0!
0$

#2425000
1!
1$
b10000011110 6

#2430000
0!
0$

#2435000
1!
1$
b10000011101 6

#2440000
0!
0$

#2445000
1!
1$
b10000011100 6

#2450000
0!
0$

#2455000
1!
1$
b10000011011 6

#2460000
0!
0$

#2465000
1!
1$
b10000011010 6

#2470000
0!
0$

#2475000
1!
1$
b10000011001 6

#2480000
0!
0$

#2485000
1!
1$
b10000011000 6

#2490000
0!
0$

#2495000
1!
1$
b10000010111 6

#2500000
0!
0$

#2505000
1!
1$
b10000010110 6

#2510000
0!
0$

#2515000
1!
1$
b10000010101 6

#2520000
0!
0$

#2525000
1!
1$
b10000010100 6

#2530000
0!
0$

#2535000
1!
1$
b10000010011 6

#2540000
0!
0$

#2545000
1!
1$
b10000010010 6

#2550000
0!
0$

#2555000
1!
1$
b10000010001 6

#2560000
0!
0$

#2565000
1!
1$
b10000010000 6

#2570000
0!
0$

#2575000
1!
1$
b10000001111 6

#2580000
0!
0$

#2585000
1!
1$
b10000001110 6

#2590000
0!
0$

#2595000
1!
1$
b10000001101 6

#2600000
0!
0$

#2605000
1!
1$
b10000001100 6

#2610000
0!
0$

#2615000
1!
1$
b10000001011 6

#2620000
0!
0$

#2625000
1!
1$
b10000001010 6

#2630000
0!
0$

#2635000
1!
1$
b10000001001 6

#2640000
0!
0$

#2645000
1!
1$
b10000001000 6

#2650000
0!
0$

#2655000
1!
1$
b10000000111 6

#2660000
0!
0$

#2665000
1!
1$
b10000000110 6

#2670000
0!
0$

#2675000
1!
1$
b10000000101 6

#2680000
0!
0$

#2685000
1!
1$
b10000000100 6

#2690000
0!
0$

#2695000
1!
1$
b10000000011 6

#2700000
0!
0$

#2705000
1!
1$
b10000000010 6

#2710000
0!
0$

#2715000
1!
1$
b10000000001 6

#2720000
0!
0$

#2725000
1!
1$
b10000000000 6

#2730000
0!
0$

#2735000
1!
1$
b1111111111 6

#2740000
0!
0$

#2745000
1!
1$
b1111111110 6

#2750000
0!
0$

#2755000
1!
1$
b1111111101 6

#2760000
0!
0$

#2765000
1!
1$
b1111111100 6

#2770000
0!
0$

#2775000
1!
1$
b1111111011 6

#2780000
0!
0$

#2785000
1!
1$
b1111111010 6

#2790000
0!
0$

#2795000
1!
1$
b1111111001 6

#2800000
0!
0$

#2805000
1!
1$
b1111111000 6

#2810000
0!
0$

#2815000
1!
1$
b1111110111 6

#2820000
0!
0$

#2825000
1!
1$
b1111110110 6

#2830000
0!
0$

#2835000
1!
1$
b1111110101 6

#2840000
0!
0$

#2845000
1!
1$
b1111110100 6

#2850000
0!
0$

#2855000
1!
1$
b1111110011 6

#2860000
0!
0$

#2865000
1!
1$
b1111110010 6

#2870000
0!
0$

#2875000
1!
1$
b1111110001 6

#2880000
0!
0$

#2885000
1!
1$
b1111110000 6

#2890000
0!
0$

#2895000
1!
1$
b1111101111 6

#2900000
0!
0$

#2905000
1!
1$
b1111101110 6

#2910000
0!
0$

#2915000
1!
1$
b1111101101 6

#2920000
0!
0$

#2925000
1!
1$
b1111101100 6

#2930000
0!
0$

#2935000
1!
1$
b1111101011 6

#2940000
0!
0$

#2945000
1!
1$
b1111101010 6

#2950000
0!
0$

#2955000
1!
1$
b1111101001 6

#2960000
0!
0$

#2965000
1!
1$
b1111101000 6

#2970000
0!
0$

#2975000
1!
1$
b1111100111 6

#2980000
0!
0$

#2985000
1!
1$
b1111100110 6

#2990000
0!
0$

#2995000
1!
1$
b1111100101 6

#3000000
0!
0$

#3005000
1!
1$
b1111100100 6

#3010000
0!
0$

#3015000
1!
1$
b1111100011 6

#3020000
0!
0$

#3025000
1!
1$
b1111100010 6

#3030000
0!
0$

#3035000
1!
1$
b1111100001 6

#3040000
0!
0$

#3045000
1!
1$
b1111100000 6

#3050000
0!
0$

#3055000
1!
1$
b1111011111 6

#3060000
0!
0$

#3065000
1!
1$
b1111011110 6

#3070000
0!
0$

#3075000
1!
1$
b1111011101 6

#3080000
0!
0$

#3085000
1!
1$
b1111011100 6

#3090000
0!
0$

#3095000
1!
1$
b1111011011 6

#3100000
0!
0$

#3105000
1!
1$
b1111011010 6

#3110000
0!
0$

#3115000
1!
1$
b1111011001 6

#3120000
0!
0$

#3125000
1!
1$
b1111011000 6

#3130000
0!
0$

#3135000
1!
1$
b1111010111 6

#3140000
0!
0$

#3145000
1!
1$
b1111010110 6

#3150000
0!
0$

#3155000
1!
1$
b1111010101 6

#3160000
0!
0$

#3165000
1!
1$
b1111010100 6

#3170000
0!
0$

#3175000
1!
1$
b1111010011 6

#3180000
0!
0$

#3185000
1!
1$
b1111010010 6

#3190000
0!
0$

#3195000
1!
1$
b1111010001 6

#3200000
0!
0$

#3205000
1!
1$
b1111010000 6

#3210000
0!
0$

#3215000
1!
1$
b1111001111 6

#3220000
0!
0$

#3225000
1!
1$
b1111001110 6

#3230000
0!
0$

#3235000
1!
1$
b1111001101 6

#3240000
0!
0$

#3245000
1!
1$
b1111001100 6

#3250000
0!
0$

#3255000
1!
1$
b1111001011 6

#3260000
0!
0$

#3265000
1!
1$
b1111001010 6

#3270000
0!
0$

#3275000
1!
1$
b1111001001 6

#3280000
0!
0$

#3285000
1!
1$
b1111001000 6

#3290000
0!
0$

#3295000
1!
1$
b1111000111 6

#3300000
0!
0$

#3305000
1!
1$
b1111000110 6

#3310000
0!
0$

#3315000
1!
1$
b1111000101 6

#3320000
0!
0$

#3325000
1!
1$
b1111000100 6

#3330000
0!
0$

#3335000
1!
1$
b1111000011 6

#3340000
0!
0$

#3345000
1!
1$
b1111000010 6

#3350000
0!
0$

#3355000
1!
1$
b1111000001 6

#3360000
0!
0$

#3365000
1!
1$
b1111000000 6

#3370000
0!
0$

#3375000
1!
1$
b1110111111 6

#3380000
0!
0$

#3385000
1!
1$
b1110111110 6

#3390000
0!
0$

#3395000
1!
1$
b1110111101 6

#3400000
0!
0$

#3405000
1!
1$
b1110111100 6

#3410000
0!
0$

#3415000
1!
1$
b1110111011 6

#3420000
0!
0$

#3425000
1!
1$
b1110111010 6

#3430000
0!
0$

#3435000
1!
1$
b1110111001 6

#3440000
0!
0$

#3445000
1!
1$
b1110111000 6

#3450000
0!
0$

#3455000
1!
1$
b1110110111 6

#3460000
0!
0$

#3465000
1!
1$
b1110110110 6

#3470000
0!
0$

#3475000
1!
1$
b1110110101 6

#3480000
0!
0$

#3485000
1!
1$
b1110110100 6

#3490000
0!
0$

#3495000
1!
1$
b1110110011 6

#3500000
0!
0$

#3505000
1!
1$
b1110110010 6

#3510000
0!
0$

#3515000
1!
1$
b1110110001 6

#3520000
0!
0$

#3525000
1!
1$
b1110110000 6

#3530000
0!
0$

#3535000
1!
1$
b1110101111 6

#3540000
0!
0$

#3545000
1!
1$
b1110101110 6

#3550000
0!
0$

#3555000
1!
1$
b1110101101 6

#3560000
0!
0$

#3565000
1!
1$
b1110101100 6

#3570000
0!
0$

#3575000
1!
1$
b1110101011 6

#3580000
0!
0$

#3585000
1!
1$
b1110101010 6

#3590000
0!
0$

#3595000
1!
1$
b1110101001 6

#3600000
0!
0$

#3605000
1!
1$
b1110101000 6

#3610000
0!
0$

#3615000
1!
1$
b1110100111 6

#3620000
0!
0$

#3625000
1!
1$
b1110100110 6

#3630000
0!
0$

#3635000
1!
1$
b1110100101 6

#3640000
0!
0$

#3645000
1!
1$
b1110100100 6

#3650000
0!
0$

#3655000
1!
1$
b1110100011 6

#3660000
0!
0$

#3665000
1!
1$
b1110100010 6

#3670000
0!
0$

#3675000
1!
1$
b1110100001 6

#3680000
0!
0$

#3685000
1!
1$
b1110100000 6

#3690000
0!
0$

#3695000
1!
1$
b1110011111 6

#3700000
0!
0$

#3705000
1!
1$
b1110011110 6

#3710000
0!
0$

#3715000
1!
1$
b1110011101 6

#3720000
0!
0$

#3725000
1!
1$
b1110011100 6

#3730000
0!
0$

#3735000
1!
1$
b1110011011 6

#3740000
0!
0$

#3745000
1!
1$
b1110011010 6

#3750000
0!
0$

#3755000
1!
1$
b1110011001 6

#3760000
0!
0$

#3765000
1!
1$
b1110011000 6

#3770000
0!
0$

#3775000
1!
1$
b1110010111 6

#3780000
0!
0$

#3785000
1!
1$
b1110010110 6

#3790000
0!
0$

#3795000
1!
1$
b1110010101 6

#3800000
0!
0$

#3805000
1!
1$
b1110010100 6

#3810000
0!
0$

#3815000
1!
1$
b1110010011 6

#3820000
0!
0$

#3825000
1!
1$
b1110010010 6

#3830000
0!
0$

#3835000
1!
1$
b1110010001 6

#3840000
0!
0$

#3845000
1!
1$
b1110010000 6

#3850000
0!
0$

#3855000
1!
1$
b1110001111 6

#3860000
0!
0$

#3865000
1!
1$
b1110001110 6

#3870000
0!
0$

#3875000
1!
1$
b1110001101 6

#3880000
0!
0$

#3885000
1!
1$
b1110001100 6

#3890000
0!
0$

#3895000
1!
1$
b1110001011 6

#3900000
0!
0$

#3905000
1!
1$
b1110001010 6

#3910000
0!
0$

#3915000
1!
1$
b1110001001 6

#3920000
0!
0$

#3925000
1!
1$
b1110001000 6

#3930000
0!
0$

#3935000
1!
1$
b1110000111 6

#3940000
0!
0$

#3945000
1!
1$
b1110000110 6

#3950000
0!
0$

#3955000
1!
1$
b1110000101 6

#3960000
0!
0$

#3965000
1!
1$
b1110000100 6

#3970000
0!
0$

#3975000
1!
1$
b1110000011 6

#3980000
0!
0$

#3985000
1!
1$
b1110000010 6

#3990000
0!
0$

#3995000
1!
1$
b1110000001 6

#4000000
0!
0$

#4005000
1!
1$
b1110000000 6

#4010000
0!
0$

#4015000
1!
1$
b1101111111 6

#4020000
0!
0$

#4025000
1!
1$
b1101111110 6

#4030000
0!
0$

#4035000
1!
1$
b1101111101 6

#4040000
0!
0$

#4045000
1!
1$
b1101111100 6

#4050000
0!
0$

#4055000
1!
1$
b1101111011 6

#4060000
0!
0$

#4065000
1!
1$
b1101111010 6

#4070000
0!
0$

#4075000
1!
1$
b1101111001 6

#4080000
0!
0$

#4085000
1!
1$
b1101111000 6

#4090000
0!
0$

#4095000
1!
1$
b1101110111 6

#4100000
0!
0$

#4105000
1!
1$
b1101110110 6

#4110000
0!
0$

#4115000
1!
1$
b1101110101 6

#4120000
0!
0$

#4125000
1!
1$
b1101110100 6

#4130000
0!
0$

#4135000
1!
1$
b1101110011 6

#4140000
0!
0$

#4145000
1!
1$
b1101110010 6

#4150000
0!
0$

#4155000
1!
1$
b1101110001 6

#4160000
0!
0$

#4165000
1!
1$
b1101110000 6

#4170000
0!
0$

#4175000
1!
1$
b1101101111 6

#4180000
0!
0$

#4185000
1!
1$
b1101101110 6

#4190000
0!
0$

#4195000
1!
1$
b1101101101 6

#4200000
0!
0$

#4205000
1!
1$
b1101101100 6

#4210000
0!
0$

#4215000
1!
1$
b1101101011 6

#4220000
0!
0$

#4225000
1!
1$
b1101101010 6

#4230000
0!
0$

#4235000
1!
1$
b1101101001 6

#4240000
0!
0$

#4245000
1!
1$
b1101101000 6

#4250000
0!
0$

#4255000
1!
1$
b1101100111 6

#4260000
0!
0$

#4265000
1!
1$
b1101100110 6

#4270000
0!
0$

#4275000
1!
1$
b1101100101 6

#4280000
0!
0$

#4285000
1!
1$
b1101100100 6

#4290000
0!
0$

#4295000
1!
1$
b1101100011 6

#4300000
0!
0$

#4305000
1!
1$
b1101100010 6

#4310000
0!
0$

#4315000
1!
1$
b1101100001 6

#4320000
0!
0$

#4325000
1!
1$
b1101100000 6

#4330000
0!
0$

#4335000
1!
1$
b1101011111 6

#4340000
0!
0$

#4345000
1!
1$
b1101011110 6

#4350000
0!
0$

#4355000
1!
1$
b1101011101 6

#4360000
0!
0$

#4365000
1!
1$
b1101011100 6

#4370000
0!
0$

#4375000
1!
1$
b1101011011 6

#4380000
0!
0$

#4385000
1!
1$
b1101011010 6

#4390000
0!
0$

#4395000
1!
1$
b1101011001 6

#4400000
0!
0$

#4405000
1!
1$
b1101011000 6

#4410000
0!
0$

#4415000
1!
1$
b1101010111 6

#4420000
0!
0$

#4425000
1!
1$
b1101010110 6

#4430000
0!
0$

#4435000
1!
1$
b1101010101 6

#4440000
0!
0$

#4445000
1!
1$
b1101010100 6

#4450000
0!
0$

#4455000
1!
1$
b1101010011 6

#4460000
0!
0$

#4465000
1!
1$
b1101010010 6

#4470000
0!
0$

#4475000
1!
1$
b1101010001 6

#4480000
0!
0$

#4485000
1!
1$
b1101010000 6

#4490000
0!
0$

#4495000
1!
1$
b1101001111 6

#4500000
0!
0$

#4505000
1!
1$
b1101001110 6

#4510000
0!
0$

#4515000
1!
1$
b1101001101 6

#4520000
0!
0$

#4525000
1!
1$
b1101001100 6

#4530000
0!
0$

#4535000
1!
1$
b1101001011 6

#4540000
0!
0$

#4545000
1!
1$
b1101001010 6

#4550000
0!
0$

#4555000
1!
1$
b1101001001 6

#4560000
0!
0$

#4565000
1!
1$
b1101001000 6

#4570000
0!
0$

#4575000
1!
1$
b1101000111 6

#4580000
0!
0$

#4585000
1!
1$
b1101000110 6

#4590000
0!
0$

#4595000
1!
1$
b1101000101 6

#4600000
0!
0$

#4605000
1!
1$
b1101000100 6

#4610000
0!
0$

#4615000
1!
1$
b1101000011 6

#4620000
0!
0$

#4625000
1!
1$
b1101000010 6

#4630000
0!
0$

#4635000
1!
1$
b1101000001 6

#4640000
0!
0$

#4645000
1!
1$
b1101000000 6

#4650000
0!
0$

#4655000
1!
1$
b1100111111 6

#4660000
0!
0$

#4665000
1!
1$
b1100111110 6

#4670000
0!
0$

#4675000
1!
1$
b1100111101 6

#4680000
0!
0$

#4685000
1!
1$
b1100111100 6

#4690000
0!
0$

#4695000
1!
1$
b1100111011 6

#4700000
0!
0$

#4705000
1!
1$
b1100111010 6

#4710000
0!
0$

#4715000
1!
1$
b1100111001 6

#4720000
0!
0$

#4725000
1!
1$
b1100111000 6

#4730000
0!
0$

#4735000
1!
1$
b1100110111 6

#4740000
0!
0$

#4745000
1!
1$
b1100110110 6

#4750000
0!
0$

#4755000
1!
1$
b1100110101 6

#4760000
0!
0$

#4765000
1!
1$
b1100110100 6

#4770000
0!
0$

#4775000
1!
1$
b1100110011 6

#4780000
0!
0$

#4785000
1!
1$
b1100110010 6

#4790000
0!
0$

#4795000
1!
1$
b1100110001 6

#4800000
0!
0$

#4805000
1!
1$
b1100110000 6

#4810000
0!
0$

#4815000
1!
1$
b1100101111 6

#4820000
0!
0$

#4825000
1!
1$
b1100101110 6

#4830000
0!
0$

#4835000
1!
1$
b1100101101 6

#4840000
0!
0$

#4845000
1!
1$
b1100101100 6

#4850000
0!
0$

#4855000
1!
1$
b1100101011 6

#4860000
0!
0$

#4865000
1!
1$
b1100101010 6

#4870000
0!
0$

#4875000
1!
1$
b1100101001 6

#4880000
0!
0$

#4885000
1!
1$
b1100101000 6

#4890000
0!
0$

#4895000
1!
1$
b1100100111 6

#4900000
0!
0$

#4905000
1!
1$
b1100100110 6

#4910000
0!
0$

#4915000
1!
1$
b1100100101 6

#4920000
0!
0$

#4925000
1!
1$
b1100100100 6

#4930000
0!
0$

#4935000
1!
1$
b1100100011 6

#4940000
0!
0$

#4945000
1!
1$
b1100100010 6

#4950000
0!
0$

#4955000
1!
1$
b1100100001 6

#4960000
0!
0$

#4965000
1!
1$
b1100100000 6

#4970000
0!
0$

#4975000
1!
1$
b1100011111 6

#4980000
0!
0$

#4985000
1!
1$
b1100011110 6

#4990000
0!
0$

#4995000
1!
1$
b1100011101 6

#5000000
0!
0$

#5005000
1!
1$
b1100011100 6

#5010000
0!
0$

#5015000
1!
1$
b1100011011 6

#5020000
0!
0$

#5025000
1!
1$
b1100011010 6

#5030000
0!
0$

#5035000
1!
1$
b1100011001 6

#5040000
0!
0$

#5045000
1!
1$
b1100011000 6

#5050000
0!
0$

#5055000
1!
1$
b1100010111 6

#5060000
0!
0$

#5065000
1!
1$
b1100010110 6

#5070000
0!
0$

#5075000
1!
1$
b1100010101 6

#5080000
0!
0$

#5085000
1!
1$
b1100010100 6

#5090000
0!
0$

#5095000
1!
1$
b1100010011 6

#5100000
0!
0$

#5105000
1!
1$
b1100010010 6

#5110000
0!
0$

#5115000
1!
1$
b1100010001 6

#5120000
0!
0$

#5125000
1!
1$
b1100010000 6

#5130000
0!
0$

#5135000
1!
1$
b1100001111 6

#5140000
0!
0$

#5145000
1!
1$
b1100001110 6

#5150000
0!
0$

#5155000
1!
1$
b1100001101 6

#5160000
0!
0$

#5165000
1!
1$
b1100001100 6

#5170000
0!
0$

#5175000
1!
1$
b1100001011 6

#5180000
0!
0$

#5185000
1!
1$
b1100001010 6

#5190000
0!
0$

#5195000
1!
1$
b1100001001 6

#5200000
0!
0$

#5205000
1!
1$
b1100001000 6

#5210000
0!
0$

#5215000
1!
1$
b1100000111 6

#5220000
0!
0$

#5225000
1!
1$
b1100000110 6

#5230000
0!
0$

#5235000
1!
1$
b1100000101 6

#5240000
0!
0$

#5245000
1!
1$
b1100000100 6

#5250000
0!
0$

#5255000
1!
1$
b1100000011 6

#5260000
0!
0$

#5265000
1!
1$
b1100000010 6

#5270000
0!
0$

#5275000
1!
1$
b1100000001 6

#5280000
0!
0$

#5285000
1!
1$
b1100000000 6

#5290000
0!
0$

#5295000
1!
1$
b1011111111 6

#5300000
0!
0$

#5305000
1!
1$
b1011111110 6

#5310000
0!
0$

#5315000
1!
1$
b1011111101 6

#5320000
0!
0$

#5325000
1!
1$
b1011111100 6

#5330000
0!
0$

#5335000
1!
1$
b1011111011 6

#5340000
0!
0$

#5345000
1!
1$
b1011111010 6

#5350000
0!
0$

