UART.sim/sim_1/behav/xsim/uart.vcd
$date
   Tue Nov 18 23:01:21 2025
$end

$version
  2024.1
  $dumpfile ("uart.vcd") 
$end

$timescale
  1ps
$end

$scope module uart_tb $end
$var reg 1 ! clk $end
$var reg 1 " rst_n $end
$var reg 1 # rxd $end
$var wire 1 $ txd $end
$var reg 8 % tx_data [7:0] $end
$var reg 1 & tx_valid $end
$var wire 1 ' tx_ready $end
$var wire 8 ( rx_data [7:0] $end
$var wire 1 ) rx_valid $end
$var reg 1 * rx_ready $end
$var reg 3 + baudrate_select [2:0] $end
$scope module uut $end
$var wire 1 , clk $end
$var wire 1 - rst_n $end
$var wire 1 . rxd $end
$var wire 1 $ txd $end
$var wire 8 / cpu_tx_data [7:0] $end
$var wire 1 0 cpu_tx_valid $end
$var wire 1 ' cpu_tx_ready $end
$var wire 8 ( cpu_rx_data [7:0] $end
$var wire 1 ) cpu_rx_valid $end
$var wire 1 1 cpu_rx_ready $end
$var wire 3 2 baudrate_select [2:0] $end
$var wire 1 3 tx_busy $end
$var wire 1 4 rx_busy $end
$var wire 1 5 tx_fifo_full $end
$var wire 1 6 rx_fifo_empty $end
$var wire 8 7 tx_fifo_data_out [7:0] $end
$var wire 1 8 tx_fifo_empty $end
$var wire 1 9 tx_fifo_rd_en $end
$var wire 8 : rx_fifo_data_in [7:0] $end
$var wire 1 ; rx_fifo_wr_en $end
$var wire 1 < rx_fifo_full $end
$var wire 1 = uart_tx_ready $end
$var wire 1 > uart_rx_valid $end
$scope module fifo_tx $end
$var wire 1 , clk_wr_domain $end
$var wire 1 , clk_rd_domain $end
$var wire 8 / data_i [7:0] $end
$var wire 8 7 data_o [7:0] $end
$var wire 1 0 wr_valid_i $end
$var wire 1 9 rd_valid_i $end
$var wire 1 8 empty_o $end
$var wire 1 5 full_o $end
$var wire 1 ' wr_ready_o $end
$var wire 1 ? rd_ready_o $end
$var wire 1 @ almost_empty_o $end
$var wire 1 A almost_full_o $end
$var wire 1 - rst_n $end
$var wire 5 B wr_addr_gray_sync [4:0] $end
$var wire 5 C rd_addr_gray_sync [4:0] $end
$var wire 5 D wr_addr_bin_sync [4:0] $end
$var wire 5 E rd_addr_bin_sync [4:0] $end
$var wire 1 F wr_handshake $end
$var wire 1 G rd_handshake $end
$var reg 5 H \REGISTERED_FIFO.wr_ptr_bin  [4:0] $end
$var reg 5 I \REGISTERED_FIFO.wr_ptr_gray  [4:0] $end
$var reg 1 J \REGISTERED_FIFO.full_reg  $end
$var reg 1 K \REGISTERED_FIFO.almost_full_reg  $end
$var reg 1 L \REGISTERED_FIFO.wr_ready_reg  $end
$var reg 5 M \REGISTERED_FIFO.rd_ptr_bin  [4:0] $end
$var reg 5 N \REGISTERED_FIFO.rd_ptr_gray  [4:0] $end
$var reg 8 O \REGISTERED_FIFO.data_out_reg  [7:0] $end
$var reg 1 P \REGISTERED_FIFO.empty_reg  $end
$var reg 1 Q \REGISTERED_FIFO.almost_empty_reg  $end
$var reg 1 R \REGISTERED_FIFO.rd_ready_reg  $end
$var wire 1 S \REGISTERED_FIFO.full_comb  $end
$var wire 1 T \REGISTERED_FIFO.empty_comb  $end
$var wire 1 U \REGISTERED_FIFO.almost_full_comb  $end
$var wire 1 V \REGISTERED_FIFO.almost_empty_comb  $end
$var wire 5 W \REGISTERED_FIFO.fifo_count_wr  [4:0] $end
$var wire 5 X \REGISTERED_FIFO.fifo_count_rd  [4:0] $end
$scope module REGISTERED_FIFO.rd_ptr_sync $end
$var wire 1 , clk $end
$var wire 1 - rst_n $end
$var wire 5 Y async_i [4:0] $end
$var wire 5 C sync_o [4:0] $end
$var reg 5 Z sync_ff_0 [4:0] $end
$var reg 5 [ sync_ff_1 [4:0] $end
$var reg 5 \ sync_ff_2 [4:0] $end
$upscope $end
$scope module REGISTERED_FIFO.wr_ptr_sync $end
$var wire 1 , clk $end
$var wire 1 - rst_n $end
$var wire 5 ] async_i [4:0] $end
$var wire 5 B sync_o [4:0] $end
$var reg 5 ^ sync_ff_0 [4:0] $end
$var reg 5 _ sync_ff_1 [4:0] $end
$var reg 5 ` sync_ff_2 [4:0] $end
$upscope $end
$scope function bin2gray $end
$var reg 5 a bin2gray [4:0] $end
$var reg 5 b bin [4:0] $end
$upscope $end
$scope function gray2bin $end
$var reg 5 c gray2bin [4:0] $end
$var reg 5 d gray [4:0] $end
$var reg 5 e result [4:0] $end
$var integer 32 f i [31:0] $end
$upscope $end
$upscope $end
$scope module uart_tx_inst $end
$var wire 1 , clk $end
$var wire 1 - rst_n $end
$var wire 8 7 data_i [7:0] $end
$var wire 1 9 data_valid_i $end
$var wire 1 = ready_o $end
$var wire 3 2 baudrate_select [2:0] $end
$var reg 1 g txd $end
$var wire 1 3 tx_busy $end
$var reg 3 h tx_state [2:0] $end
$var reg 3 i bit_counter [2:0] $end
$var reg 8 j shift_reg [7:0] $end
$var reg 1 k transaction_en $end
$var wire 1 l baud_enable $end
$scope module baud_gen_tx $end
$var wire 1 , clk $end
$var wire 1 m transaction_en $end
$var wire 3 2 baudrate_mux [2:0] $end
$var reg 1 n baudrate_clk_en $end
$var wire 1 - rst_n $end
$var reg 15 o counter_div [14:0] $end
$var reg 15 p counter_div_load [14:0] $end
$upscope $end
$upscope $end
$scope module uart_rx_inst $end
$var wire 1 , clk $end
$var wire 1 - rst_n $end
$var wire 1 . rxd $end
$var reg 8 q data_o [7:0] $end
$var reg 1 r data_valid_o $end
$var wire 1 4 rx_busy $end
$var wire 3 2 baudrate_select [2:0] $end
$var reg 3 s rx_state [2:0] $end
$var reg 3 t bit_counter [2:0] $end
$var reg 8 u shift_reg [7:0] $end
$var reg 1 v transaction_en $end
$var wire 1 w baud_enable $end
$var reg 3 x rxd_sync [2:0] $end
$var wire 1 y rxd_clean $end
$var reg 1 z rxd_prev $end
$var wire 1 { start_bit_detected $end
$scope module baud_gen_rx $end
$var wire 1 , clk $end
$var wire 1 | transaction_en $end
$var wire 3 2 baudrate_mux [2:0] $end
$var reg 1 } baudrate_clk_en $end
$var wire 1 - rst_n $end
$var reg 15 ~ counter_div [14:0] $end
$var reg 15 !! counter_div_load [14:0] $end
$var reg 4 "! \BLOCK_FOR_RX.sample_counter  [3:0] $end
$upscope $end
$upscope $end
$scope module fifo_rx $end
$var wire 1 , clk_wr_domain $end
$var wire 1 , clk_rd_domain $end
$var wire 8 : data_i [7:0] $end
$var wire 8 ( data_o [7:0] $end
$var wire 1 ; wr_valid_i $end
$var wire 1 1 rd_valid_i $end
$var wire 1 6 empty_o $end
$var wire 1 < full_o $end
$var wire 1 #! wr_ready_o $end
$var wire 1 ) rd_ready_o $end
$var wire 1 $! almost_empty_o $end
$var wire 1 %! almost_full_o $end
$var wire 1 - rst_n $end
$var wire 5 &! wr_addr_gray_sync [4:0] $end
$var wire 5 '! rd_addr_gray_sync [4:0] $end
$var wire 5 (! wr_addr_bin_sync [4:0] $end
$var wire 5 )! rd_addr_bin_sync [4:0] $end
$var wire 1 *! wr_handshake $end
$var wire 1 +! rd_handshake $end
$var reg 5 ,! \REGISTERED_FIFO.wr_ptr_bin  [4:0] $end
$var reg 5 -! \REGISTERED_FIFO.wr_ptr_gray  [4:0] $end
$var reg 1 .! \REGISTERED_FIFO.full_reg  $end
$var reg 1 /! \REGISTERED_FIFO.almost_full_reg  $end
$var reg 1 0! \REGISTERED_FIFO.wr_ready_reg  $end
$var reg 5 1! \REGISTERED_FIFO.rd_ptr_bin  [4:0] $end
$var reg 5 2! \REGISTERED_FIFO.rd_ptr_gray  [4:0] $end
$var reg 8 3! \REGISTERED_FIFO.data_out_reg  [7:0] $end
$var reg 1 4! \REGISTERED_FIFO.empty_reg  $end
$var reg 1 5! \REGISTERED_FIFO.almost_empty_reg  $end
$var reg 1 6! \REGISTERED_FIFO.rd_ready_reg  $end
$var wire 1 7! \REGISTERED_FIFO.full_comb  $end
$var wire 1 8! \REGISTERED_FIFO.empty_comb  $end
$var wire 1 9! \REGISTERED_FIFO.almost_full_comb  $end
$var wire 1 :! \REGISTERED_FIFO.almost_empty_comb  $end
$var wire 5 ;! \REGISTERED_FIFO.fifo_count_wr  [4:0] $end
$var wire 5 <! \REGISTERED_FIFO.fifo_count_rd  [4:0] $end
$scope module REGISTERED_FIFO.rd_ptr_sync $end
$var wire 1 , clk $end
$var wire 1 - rst_n $end
$var wire 5 =! async_i [4:0] $end
$var wire 5 '! sync_o [4:0] $end
$var reg 5 >! sync_ff_0 [4:0] $end
$var reg 5 ?! sync_ff_1 [4:0] $end
$var reg 5 @! sync_ff_2 [4:0] $end
$upscope $end
$scope module REGISTERED_FIFO.wr_ptr_sync $end
$var wire 1 , clk $end
$var wire 1 - rst_n $end
$var wire 5 A! async_i [4:0] $end
$var wire 5 &! sync_o [4:0] $end
$var reg 5 B! sync_ff_0 [4:0] $end
$var reg 5 C! sync_ff_1 [4:0] $end
$var reg 5 D! sync_ff_2 [4:0] $end
$upscope $end
$scope function bin2gray $end
$var reg 5 E! bin2gray [4:0] $end
$var reg 5 F! bin [4:0] $end
$upscope $end
$scope function gray2bin $end
$var reg 5 G! gray2bin [4:0] $end
$var reg 5 H! gray [4:0] $end
$var reg 5 I! result [4:0] $end
$var integer 32 J! i [31:0] $end
$upscope $end
$upscope $end
$upscope $end
$scope task uart_send_byte $end
$var reg 8 K! data [7:0] $end
$var integer 32 L! i [31:0] $end
$upscope $end
$upscope $end
$enddefinitions $end

#0
$dumpvars
0!
b1101100011 !!
0"
b0 "!
1#
1#!
1$
1$!
b0 %
0%!
0&
b0 &!
1'
b0 '!
b0 (
b0 (!
0)
b0 )!
0*
0*!
b111 +
0+!
0,
b0 ,!
0-
b0 -!
1.
0.!
b0 /
0/!
00
10!
01
b0 1!
b111 2
b0 2!
03
b0 3!
04
14!
05
15!
16
06!
b0 7
07!
18
18!
09
09!
b0 :
1:!
0;
b0 ;!
0<
b0 <!
1=
b0 =!
z>
b0 >!
0?
b0 ?!
1@
bx @!
0A
b0 A!
b0 B
b0 B!
b0 C
b0 C!
b0 D
bx D!
b0 E
bx E!
0F
bx F!
0G
b0 G!
b0 H
b0 H!
b0 I
b0 I!
0J
b11111111111111111111111111111111 J!
0K
bx K!
1L
bx L!
b0 M
b0 N
b0 O
1P
1Q
0R
0S
1T
0U
1V
b0 W
b0 X
b0 Y
b0 Z
b0 [
bx \
b0 ]
b0 ^
b0 _
bx `
bx a
bx b
b0 c
b0 d
b0 e
b11111111111111111111111111111111 f
1g
b0 h
b0 i
b0 j
0k
0l
0m
0n
b0 o
b1101100011 p
b0 q
0r
b0 s
b0 t
b0 u
0v
0w
b111 x
1y
1z
0{
0|
0}
b0 ~
$end

#5000
1!
1,

#10000
0!
0,

#15000
1!
1,

#20000
0!
0,

#25000
1!
1,

#30000
0!
0,

#35000
1!
1,

#40000
0!
0,

#45000
1!
1,

#50000
0!
0,

#55000
1!
1,

#60000
0!
0,

#65000
1!
1,

#70000
0!
0,

#75000
1!
1,

#80000
0!
0,

#85000
1!
1,

#90000
0!
0,

#95000
1!
1,

#100000
0!
1"
0,
1-

#105000
1!
1,
b1101100011 o
b1101100011 ~

#110000
0!
0,

#115000
1!
1,

#120000
0!
0,

#125000
1!
1,

#130000
0!
0,

#135000
1!
1,

#140000
0!
0,

#145000
1!
1,

#150000
0!
0,

#155000
1!
1,

#160000
0!
0,

#165000
1!
1,

#170000
0!
0,

#175000
1!
1,

#180000
0!
0,

#185000
1!
1,

#190000
0!
0,

#195000
1!
1,

#200000
0!
0,

#205000
1!
1,

#210000
0!
0,

#215000
1!
1,

#220000
0!
0,

#225000
1!
1,

#230000
0!
0,

#235000
1!
1,

#240000
0!
0,

#245000
1!
1,

#250000
0!
0,

#255000
1!
1,

#260000
0!
0,

#265000
1!
1,

#270000
0!
0,

#275000
1!
1,

#280000
0!
0,

#285000
1!
1,

#290000
0!
0,

#295000
1!
1,

#300000
0!
0,

#305000
1!
1,

#310000
0!
0,

#315000
1!
1,

#320000
0!
0,

#325000
1!
1,

#330000
0!
0,

#335000
1!
1,

#340000
0!
0,

#345000
1!
1,

#350000
0!
0,

#355000
1!
1,

#360000
0!
0,

#365000
1!
1,

#370000
0!
0,

#375000
1!
1,

#380000
0!
0,

#385000
1!
1,

#390000
0!
0,

#395000
1!
1,

#400000
0!
0,

#405000
1!
1,

#410000
0!
0,

#415000
1!
1,

#420000
0!
0,

#425000
1!
1,

#430000
0!
0,

#435000
1!
1,

#440000
0!
0,

#445000
1!
1,

#450000
0!
0,

#455000
1!
1,

#460000
0!
0,

#465000
1!
1,

#470000
0!
0,

#475000
1!
1,

#480000
0!
0,

#485000
1!
1,

#490000
0!
0,

#495000
1!
1,

#500000
0!
0,

#505000
1!
1,

#510000
0!
0,

#515000
1!
1,

#520000
0!
0,

#525000
1!
1,

#530000
0!
0,

#535000
1!
1,

#540000
0!
0,

#545000
1!
1,

#550000
0!
0,

#555000
1!
1,

#560000
0!
0,

#565000
1!
1,

#570000
0!
0,

#575000
1!
1,

#580000
0!
0,

#585000
1!
1,

#590000
0!
0,

#595000
1!
1,

#600000
0!
0,

#605000
1!
1,

#610000
0!
0,

#615000
1!
1,

#620000
0!
0,

#625000
1!
1,

#630000
0!
0,

#635000
1!
1,

#640000
0!
0,

#645000
1!
1,

#650000
0!
0,

#655000
1!
1,

#660000
0!
0,

#665000
1!
1,

#670000
0!
0,

#675000
1!
1,

#680000
0!
0,

#685000
1!
1,

#690000
0!
0,

#695000
1!
1,

#700000
0!
0,

#705000
1!
1,

#710000
0!
0,

#715000
1!
1,

#720000
0!
0,

#725000
1!
1,

#730000
0!
0,

#735000
1!
1,

#740000
0!
0,

#745000
1!
1,

#750000
0!
0,

#755000
1!
1,

#760000
0!
0,

#765000
1!
1,

#770000
0!
0,

#775000
1!
1,

#780000
0!
0,

#785000
1!
1,

#790000
0!
0,

#795000
1!
1,

#800000
0!
0,

#805000
1!
1,

#810000
0!
0,

#815000
1!
1,

#820000
0!
0,

#825000
1!
1,

#830000
0!
0,

#835000
1!
1,

#840000
0!
0,

#845000
1!
1,

#850000
0!
0,

#855000
1!
1,

#860000
0!
0,

#865000
1!
1,

#870000
0!
0,

#875000
1!
1,

#880000
0!
0,

#885000
1!
1,

#890000
0!
0,

#895000
1!
1,

#900000
0!
0,

#905000
1!
1,

#910000
0!
0,

#915000
1!
1,

#920000
0!
0,

#925000
1!
1,

#930000
0!
0,

#935000
1!
1,

#940000
0!
0,

#945000
1!
1,

#950000
0!
0,

#955000
1!
1,

#960000
0!
0,

#965000
1!
1,

#970000
0!
0,

#975000
1!
1,

#980000
0!
0,

#985000
1!
1,

#990000
0!
0,

#995000
1!
1,

#1000000
0!
0,

#1005000
1!
1,

#1010000
0!
0,

#1015000
1!
1,

#1020000
0!
0,

#1025000
1!
1,

#1030000
0!
0,

#1035000
1!
1,

#1040000
0!
0,

#1045000
1!
1,

#1050000
0!
0,

#1055000
1!
1,

#1060000
0!
0,

#1065000
1!
1,

#1070000
0!
0,

#1075000
1!
1,

#1080000
0!
0,

#1085000
1!
1,

#1090000
0!
0,

#1095000
1!
1,

#1100000
0!
0#
0,
0.
b1010101 K!

#1105000
1!
1,
b110 x

#1110000
0!
0,

#1115000
1!
1,
b100 x
0y
1{

#1120000
0!
0,

#1125000
1!
1,
14
b1 s
1v
b0 x
0z
0{
1|

#1130000
0!
0,

#1135000
1!
1,
b1101100010 ~

#1140000
0!
0,

#1145000
1!
1,
b1101100001 ~

#1150000
0!
0,

#1155000
1!
1,
b1101100000 ~

#1160000
0!
0,

#1165000
1!
1,
b1101011111 ~

#1170000
0!
0,

#1175000
1!
1,
b1101011110 ~

#1180000
0!
0,

#1185000
1!
1,
b1101011101 ~

#1190000
0!
0,

#1195000
1!
1,
b1101011100 ~

#1200000
0!
0,

#1205000
1!
1,
b1101011011 ~

#1210000
0!
0,

#1215000
1!
1,
b1101011010 ~

#1220000
0!
0,

#1225000
1!
1,
b1101011001 ~

#1230000
0!
0,

#1235000
1!
1,
b1101011000 ~

#1240000
0!
0,

#1245000
1!
1,
b1101010111 ~

#1250000
0!
0,

#1255000
1!
1,
b1101010110 ~

#1260000
0!
0,

#1265000
1!
1,
b1101010101 ~

#1270000
0!
0,

#1275000
1!
1,
b1101010100 ~

#1280000
0!
0,

#1285000
1!
1,
b1101010011 ~

#1290000
0!
0,

#1295000
1!
1,
b1101010010 ~

#1300000
0!
0,

#1305000
1!
1,
b1101010001 ~

#1310000
0!
0,

#1315000
1!
1,
b1101010000 ~

#1320000
0!
0,

#1325000
1!
1,
b1101001111 ~

#1330000
0!
0,

#1335000
1!
1,
b1101001110 ~

#1340000
0!
0,

#1345000
1!
1,
b1101001101 ~

#1350000
0!
0,

#1355000
1!
1,
b1101001100 ~

#1360000
0!
0,

#1365000
1!
1,
b1101001011 ~

#1370000
0!
0,

#1375000
1!
1,
b1101001010 ~

#1380000
0!
0,

#1385000
1!
1,
b1101001001 ~

#1390000
0!
0,

#1395000
1!
1,
b1101001000 ~

#1400000
0!
0,

#1405000
1!
1,
b1101000111 ~

#1410000
0!
0,

#1415000
1!
1,
b1101000110 ~

#1420000
0!
0,

#1425000
1!
1,
b1101000101 ~

#1430000
0!
0,

#1435000
1!
1,
b1101000100 ~

#1440000
0!
0,

#1445000
1!
1,
b1101000011 ~

#1450000
0!
0,

#1455000
1!
1,
b1101000010 ~

#1460000
0!
0,

#1465000
1!
1,
b1101000001 ~

#1470000
0!
0,

#1475000
1!
1,
b1101000000 ~

#1480000
0!
0,

#1485000
1!
1,
b1100111111 ~

#1490000
0!
0,

#1495000
1!
1,
b1100111110 ~

#1500000
0!
0,

#1505000
1!
1,
b1100111101 ~

#1510000
0!
0,

#1515000
1!
1,
b1100111100 ~

#1520000
0!
0,

#1525000
1!
1,
b1100111011 ~

#1530000
0!
0,

#1535000
1!
1,
b1100111010 ~

#1540000
0!
0,

#1545000
1!
1,
b1100111001 ~

#1550000
0!
0,

#1555000
1!
1,
b1100111000 ~

#1560000
0!
0,

#1565000
1!
1,
b1100110111 ~

#1570000
0!
0,

#1575000
1!
1,
b1100110110 ~

#1580000
0!
0,

#1585000
1!
1,
b1100110101 ~

#1590000
0!
0,

#1595000
1!
1,
b1100110100 ~

#1600000
0!
0,

#1605000
1!
1,
b1100110011 ~

#1610000
0!
0,

#1615000
1!
1,
b1100110010 ~

#1620000
0!
0,

#1625000
1!
1,
b1100110001 ~

#1630000
0!
0,

#1635000
1!
1,
b1100110000 ~

#1640000
0!
0,

#1645000
1!
1,
b1100101111 ~

#1650000
0!
0,

#1655000
1!
1,
b1100101110 ~

#1660000
0!
0,

#1665000
1!
1,
b1100101101 ~

#1670000
0!
0,

#1675000
1!
1,
b1100101100 ~

#1680000
0!
0,

#1685000
1!
1,
b1100101011 ~

#1690000
0!
0,

#1695000
1!
1,
b1100101010 ~

#1700000
0!
0,

#1705000
1!
1,
b1100101001 ~

#1710000
0!
0,

#1715000
1!
1,
b1100101000 ~

#1720000
0!
0,

#1725000
1!
1,
b1100100111 ~

#1730000
0!
0,

#1735000
1!
1,
b1100100110 ~

#1740000
0!
0,

#1745000
1!
1,
b1100100101 ~

#1750000
0!
0,

#1755000
1!
1,
b1100100100 ~

#1760000
0!
0,

#1765000
1!
1,
b1100100011 ~

#1770000
0!
0,

#1775000
1!
1,
b1100100010 ~

#1780000
0!
0,

#1785000
1!
1,
b1100100001 ~

#1790000
0!
0,

#1795000
1!
1,
b1100100000 ~

#1800000
0!
0,

#1805000
1!
1,
b1100011111 ~

#1810000
0!
0,

#1815000
1!
1,
b1100011110 ~

#1820000
0!
0,

#1825000
1!
1,
b1100011101 ~

#1830000
0!
0,

#1835000
1!
1,
b1100011100 ~

#1840000
0!
0,

#1845000
1!
1,
b1100011011 ~

#1850000
0!
0,

#1855000
1!
1,
b1100011010 ~

#1860000
0!
0,

#1865000
1!
1,
b1100011001 ~

#1870000
0!
0,

#1875000
1!
1,
b1100011000 ~

#1880000
0!
0,

#1885000
1!
1,
b1100010111 ~

#1890000
0!
0,

#1895000
1!
1,
b1100010110 ~

#1900000
0!
0,

#1905000
1!
1,
b1100010101 ~

#1910000
0!
0,

#1915000
1!
1,
b1100010100 ~

#1920000
0!
0,

#1925000
1!
1,
b1100010011 ~

#1930000
0!
0,

#1935000
1!
1,
b1100010010 ~

#1940000
0!
0,

#1945000
1!
1,
b1100010001 ~

#1950000
0!
0,

#1955000
1!
1,
b1100010000 ~

#1960000
0!
0,

#1965000
1!
1,
b1100001111 ~

#1970000
0!
0,

#1975000
1!
1,
b1100001110 ~

#1980000
0!
0,

#1985000
1!
1,
b1100001101 ~

#1990000
0!
0,

#1995000
1!
1,
b1100001100 ~

#2000000
0!
0,

#2005000
1!
1,
b1100001011 ~

#2010000
0!
0,

#2015000
1!
1,
b1100001010 ~

#2020000
0!
0,

#2025000
1!
1,
b1100001001 ~

#2030000
0!
0,

#2035000
1!
1,
b1100001000 ~

#2040000
0!
0,

#2045000
1!
1,
b1100000111 ~

#2050000
0!
0,

#2055000
1!
1,
b1100000110 ~

#2060000
0!
0,

#2065000
1!
1,
b1100000101 ~

#2070000
0!
0,

#2075000
1!
1,
b1100000100 ~

#2080000
0!
0,

#2085000
1!
1,
b1100000011 ~

#2090000
0!
0,

#2095000
1!
1,
b1100000010 ~

#2100000
0!
0,

#2105000
1!
1,
b1100000001 ~

#2110000
0!
0,

#2115000
1!
1,
b1100000000 ~

#2120000
0!
0,

#2125000
1!
1,
b1011111111 ~

#2130000
0!
0,

#2135000
1!
1,
b1011111110 ~

#2140000
0!
0,

#2145000
1!
1,
b1011111101 ~

#2150000
0!
0,

#2155000
1!
1,
b1011111100 ~

#2160000
0!
0,

#2165000
1!
1,
b1011111011 ~

#2170000
0!
0,

#2175000
1!
1,
b1011111010 ~

#2180000
0!
0,

#2185000
1!
1,
b1011111001 ~

#2190000
0!
0,

#2195000
1!
1,
b1011111000 ~

#2200000
0!
0,

#2205000
1!
1,
b1011110111 ~

#2210000
0!
0,

#2215000
1!
1,
b1011110110 ~

#2220000
0!
0,

#2225000
1!
1,
b1011110101 ~

#2230000
0!
0,

#2235000
1!
1,
b1011110100 ~

#2240000
0!
0,

#2245000
1!
1,
b1011110011 ~

#2250000
0!
0,

#2255000
1!
1,
b1011110010 ~

#2260000
0!
0,

#2265000
1!
1,
b1011110001 ~

#2270000
0!
0,

#2275000
1!
1,
b1011110000 ~

#2280000
0!
0,

#2285000
1!
1,
b1011101111 ~

#2290000
0!
0,

#2295000
1!
1,
b1011101110 ~

#2300000
0!
0,

#2305000
1!
1,
b1011101101 ~

#2310000
0!
0,

#2315000
1!
1,
b1011101100 ~

#2320000
0!
0,

#2325000
1!
1,
b1011101011 ~

#2330000
0!
0,

#2335000
1!
1,
b1011101010 ~

#2340000
0!
0,

#2345000
1!
1,
b1011101001 ~

#2350000
0!
0,

#2355000
1!
1,
b1011101000 ~

#2360000
0!
0,

#2365000
1!
1,
b1011100111 ~

#2370000
0!
0,

#2375000
1!
1,
b1011100110 ~

#2380000
0!
0,

#2385000
1!
1,
b1011100101 ~

#2390000
0!
0,

#2395000
1!
1,
b1011100100 ~

#2400000
0!
0,

#2405000
1!
1,
b1011100011 ~

#2410000
0!
0,

#2415000
1!
1,
b1011100010 ~

#2420000
0!
0,

#2425000
1!
1,
b1011100001 ~

#2430000
0!
0,

#2435000
1!
1,
b1011100000 ~

#2440000
0!
0,

#2445000
1!
1,
b1011011111 ~

#2450000
0!
0,

#2455000
1!
1,
b1011011110 ~

#2460000
0!
0,

#2465000
1!
1,
b1011011101 ~

#2470000
0!
0,

#2475000
1!
1,
b1011011100 ~

#2480000
0!
0,

#2485000
1!
1,
b1011011011 ~

#2490000
0!
0,

#2495000
1!
1,
b1011011010 ~

#2500000
0!
0,

#2505000
1!
1,
b1011011001 ~

#2510000
0!
0,

#2515000
1!
1,
b1011011000 ~

#2520000
0!
0,

#2525000
1!
1,
b1011010111 ~

#2530000
0!
0,

#2535000
1!
1,
b1011010110 ~

#2540000
0!
0,

#2545000
1!
1,
b1011010101 ~

#2550000
0!
0,

#2555000
1!
1,
b1011010100 ~

#2560000
0!
0,

#2565000
1!
1,
b1011010011 ~

#2570000
0!
0,

#2575000
1!
1,
b1011010010 ~

#2580000
0!
0,

#2585000
1!
1,
b1011010001 ~

#2590000
0!
0,

#2595000
1!
1,
b1011010000 ~

#2600000
0!
0,

#2605000
1!
1,
b1011001111 ~

#2610000
0!
0,

#2615000
1!
1,
b1011001110 ~

#2620000
0!
0,

#2625000
1!
1,
b1011001101 ~

#2630000
0!
0,

#2635000
1!
1,
b1011001100 ~

#2640000
0!
0,

#2645000
1!
1,
b1011001011 ~

#2650000
0!
0,

#2655000
1!
1,
b1011001010 ~

#2660000
0!
0,

#2665000
1!
1,
b1011001001 ~

#2670000
0!
0,

#2675000
1!
1,
b1011001000 ~

#2680000
0!
0,

#2685000
1!
1,
b1011000111 ~

#2690000
0!
0,

#2695000
1!
1,
b1011000110 ~

#2700000
0!
0,

#2705000
1!
1,
b1011000101 ~

#2710000
0!
0,

#2715000
1!
1,
b1011000100 ~

#2720000
0!
0,

#2725000
1!
1,
b1011000011 ~

#2730000
0!
0,

#2735000
1!
1,
b1011000010 ~

#2740000
0!
0,

#2745000
1!
1,
b1011000001 ~

#2750000
0!
0,

#2755000
1!
1,
b1011000000 ~

#2760000
0!
0,

#2765000
1!
1,
b1010111111 ~

#2770000
0!
0,

#2775000
1!
1,
b1010111110 ~

#2780000
0!
0,

#2785000
1!
1,
b1010111101 ~

#2790000
0!
0,

#2795000
1!
1,
b1010111100 ~

#2800000
0!
0,

#2805000
1!
1,
b1010111011 ~

#2810000
0!
0,

#2815000
1!
1,
b1010111010 ~

#2820000
0!
0,

#2825000
1!
1,
b1010111001 ~

#2830000
0!
0,

#2835000
1!
1,
b1010111000 ~

#2840000
0!
0,

#2845000
1!
1,
b1010110111 ~

#2850000
0!
0,

#2855000
1!
1,
b1010110110 ~

#2860000
0!
0,

#2865000
1!
1,
b1010110101 ~

#2870000
0!
0,

#2875000
1!
1,
b1010110100 ~

#2880000
0!
0,

#2885000
1!
1,
b1010110011 ~

#2890000
0!
0,

#2895000
1!
1,
b1010110010 ~

#2900000
0!
0,

#2905000
1!
1,
b1010110001 ~

#2910000
0!
0,

#2915000
1!
1,
b1010110000 ~

#2920000
0!
0,

#2925000
1!
1,
b1010101111 ~

#2930000
0!
0,

#2935000
1!
1,
b1010101110 ~

#2940000
0!
0,

#2945000
1!
1,
b1010101101 ~

#2950000
0!
0,

#2955000
1!
1,
b1010101100 ~

#2960000
0!
0,

#2965000
1!
1,
b1010101011 ~

#2970000
0!
0,

#2975000
1!
1,
b1010101010 ~

#2980000
0!
0,

#2985000
1!
1,
b1010101001 ~

#2990000
0!
0,

#2995000
1!
1,
b1010101000 ~

#3000000
0!
0,

#3005000
1!
1,
b1010100111 ~

#3010000
0!
0,

#3015000
1!
1,
b1010100110 ~

#3020000
0!
0,

#3025000
1!
1,
b1010100101 ~

#3030000
0!
0,

#3035000
1!
1,
b1010100100 ~

#3040000
0!
0,

#3045000
1!
1,
b1010100011 ~

#3050000
0!
0,

#3055000
1!
1,
b1010100010 ~

#3060000
0!
0,

#3065000
1!
1,
b1010100001 ~

#3070000
0!
0,

#3075000
1!
1,
b1010100000 ~

#3080000
0!
0,

#3085000
1!
1,
b1010011111 ~

#3090000
0!
0,

#3095000
1!
1,
b1010011110 ~

#3100000
0!
0,

#3105000
1!
1,
b1010011101 ~

#3110000
0!
0,

#3115000
1!
1,
b1010011100 ~

#3120000
0!
0,

#3125000
1!
1,
b1010011011 ~

#3130000
0!
0,

#3135000
1!
1,
b1010011010 ~

#3140000
0!
0,

#3145000
1!
1,
b1010011001 ~

#3150000
0!
0,

#3155000
1!
1,
b1010011000 ~

#3160000
0!
0,

#3165000
1!
1,
b1010010111 ~

#3170000
0!
0,

#3175000
1!
1,
b1010010110 ~

#3180000
0!
0,

#3185000
1!
1,
b1010010101 ~

#3190000
0!
0,

#3195000
1!
1,
b1010010100 ~

#3200000
0!
0,

#3205000
1!
1,
b1010010011 ~

#3210000
0!
0,

#3215000
1!
1,
b1010010010 ~

#3220000
0!
0,

#3225000
1!
1,
b1010010001 ~

#3230000
0!
0,

#3235000
1!
1,
b1010010000 ~

#3240000
0!
0,

#3245000
1!
1,
b1010001111 ~

#3250000
0!
0,

#3255000
1!
1,
b1010001110 ~

#3260000
0!
0,

#3265000
1!
1,
b1010001101 ~

#3270000
0!
0,

#3275000
1!
1,
b1010001100 ~

#3280000
0!
0,

#3285000
1!
1,
b1010001011 ~

#3290000
0!
0,

#3295000
1!
1,
b1010001010 ~

#3300000
0!
0,

#3305000
1!
1,
b1010001001 ~

#3310000
0!
0,

#3315000
1!
1,
b1010001000 ~

#3320000
0!
0,

#3325000
1!
1,
b1010000111 ~

#3330000
0!
0,

#3335000
1!
1,
b1010000110 ~

#3340000
0!
0,

#3345000
1!
1,
b1010000101 ~

#3350000
0!
0,

#3355000
1!
1,
b1010000100 ~

#3360000
0!
0,

#3365000
1!
1,
b1010000011 ~

#3370000
0!
0,

#3375000
1!
1,
b1010000010 ~

#3380000
0!
0,

#3385000
1!
1,
b1010000001 ~

#3390000
0!
0,

#3395000
1!
1,
b1010000000 ~

#3400000
0!
0,

#3405000
1!
1,
b1001111111 ~

#3410000
0!
0,

#3415000
1!
1,
b1001111110 ~

#3420000
0!
0,

#3425000
1!
1,
b1001111101 ~

#3430000
0!
0,

#3435000
1!
1,
b1001111100 ~

#3440000
0!
0,

#3445000
1!
1,
b1001111011 ~

#3450000
0!
0,

#3455000
1!
1,
b1001111010 ~

#3460000
0!
0,

#3465000
1!
1,
b1001111001 ~

#3470000
0!
0,

